Application Version: ${ruoyi.version}
Spring Boot Version: ${spring-boot.version}
              _,,,_
            .'     `'.
           /     ____ \      Fucking NullPointerException
           |  .-'_  _\/    /
           \_/   a  a|    /
           (,`     \ |         .----.
            |     -' |        /|     '--.
             \   '=  /        ||    ]|   `-.
             /`-.__.'         ||    ]|    ::|
          .-'`-.__ \__        ||    ]|    ::|
         /        ``  `.      ||    ]|    ::|
       _ |     \     \  \     \|    ]|   .-'
      / \|      \    |   \     L.__  .--'(
     |   |\      `.  |    \  ,---|_      \---------,
     |   | '.      './\    \/ .--._|=-    |_      /|
     |   \   '.     `'.'. /`\/ .-'          '.   / |
     |   |     `'.     `;-:-;`)|             |-./  |
     |   /_       `'--./_  ` )/'-------------')/)  |
     \   | `""""----"`\//`""`/,===..'`````````/ (  |
      |  |            / `---` `==='          /   ) |
      /  \           /                      /   (  |
     |    '------.  |'--------------------'|     ) |
      \           `-|                      |    /  |
       `--...,______|                      |   (   |
              | |   |                      |    ) ,|
              | |   |                      |   ( /||
              | |   |                      |   )/ `"
             /   \  |                      |  (/
           .' /I\ '.|                      |  /)
        .-'_.'/ \'. |                      | /
        ```  `"""` `| .-------------------.||
                    `"`                   `"`